<svg width="21" height="17" viewBox="0 0 21 17" fill="none" xmlns="http://www.w3.org/2000/svg">
<path opacity="0.2" d="M10.0728 0.898926H4.31917L0.160645 16.6501H8.02197L10.0728 0.898926ZM20.8678 0.898926H15.1143L10.9272 16.6501H18.7886L20.8678 0.898926Z" fill="white"/>
</svg>
